<svg width="19" height="21" viewBox="0 0 19 21" fill="none" xmlns="http://www.w3.org/2000/svg">
<g clip-path="url(#clip0_69_903)">
<path d="M1.48477 8.04202H3.45572C3.74569 8.04038 4.02435 8.15442 4.22997 8.35889C4.4356 8.56336 4.55121 8.84137 4.55121 9.13135L4.55121 19.9124C4.55121 20.5131 4.06418 21.0001 3.46341 21.0001L1.48477 21.0001C0.883995 21.0001 0.396973 20.5131 0.396973 19.9124V9.12981C0.396973 8.52904 0.883995 8.04202 1.48477 8.04202H1.48477Z" fill="white"/>
<rect x="7.42841" width="4.14808" height="20.9989" rx="0.707" fill="white"/>
<rect x="14.4568" y="4.72505" width="4.14808" height="16.2738" rx="0.707" fill="white"/>
</g>
<defs>
<clipPath id="clip0_69_903">
<rect width="18.2079" height="21.0001" fill="white" transform="translate(0.396973)"/>
</clipPath>
</defs>
</svg>
