<svg width="22" height="21" viewBox="0 0 22 21" fill="none" xmlns="http://www.w3.org/2000/svg">
<path fill-rule="evenodd" clip-rule="evenodd" d="M20.3996 7.79702C20.8543 7.92407 21.1199 8.39568 20.9927 8.85033C20.9422 9.03123 20.833 9.19017 20.6822 9.30215L19.4722 10.2352C19.4834 10.4394 19.4806 10.6506 19.4722 10.859L20.6584 11.792C21.0283 12.0849 21.0909 12.6221 20.7983 12.9922C20.6847 13.1381 20.5265 13.2427 20.3479 13.2902L18.8945 13.6776C18.8218 13.8693 18.7392 14.0595 18.6525 14.2484L19.3981 15.5703C19.5097 15.7676 19.5382 16.0011 19.4773 16.2195C19.4164 16.4378 19.2711 16.623 19.0736 16.7341C18.9127 16.825 18.7267 16.8613 18.5434 16.8376L17.0397 16.6417C16.9194 16.769 16.7991 16.8949 16.6718 17.0152C16.6526 17.0499 16.6316 17.0835 16.6088 17.1159L16.7935 18.5959C16.8502 19.0644 16.5164 19.4903 16.0479 19.5471C15.8642 19.5694 15.6782 19.5316 15.5178 19.4394L14.1875 18.677C13.9959 18.7638 13.8 18.8421 13.6028 18.9148L13.1929 20.3794C13.0641 20.8323 12.5927 21.0952 12.1396 20.9669C12.0527 20.9418 11.9702 20.9036 11.8948 20.8536C11.8217 20.8035 11.7566 20.7427 11.7018 20.6731L10.7716 19.466C10.5659 19.4729 10.3603 19.4729 10.1547 19.466L9.22169 20.6522C9.02261 20.9053 8.6983 21.0253 8.3824 20.9627C8.27113 20.945 8.16456 20.905 8.06906 20.8452C7.89843 20.7302 7.7752 20.5572 7.72216 20.3584L7.33189 18.8896C7.13466 18.8155 6.94162 18.733 6.74998 18.6435L5.4253 19.3918C5.14525 19.5504 4.79994 19.5385 4.53146 19.361C4.26325 19.1796 4.12034 18.8624 4.16217 18.5413L4.3594 17.025C4.21113 16.8865 4.07124 16.7453 3.93137 16.5984L2.41085 16.7872C2.20617 16.8076 2.00092 16.7545 1.83173 16.6376C1.45975 16.3878 1.34481 15.8926 1.56876 15.5045L2.32971 14.1742C2.24718 13.9896 2.17024 13.8035 2.1003 13.6147L0.620358 13.1951C0.533097 13.1716 0.450356 13.1338 0.375565 13.0832C-0.015071 12.8179 -0.11655 12.286 0.148957 11.8956C0.198991 11.8225 0.259835 11.7574 0.329411 11.7025L1.54778 10.7639C1.53798 10.5611 1.53938 10.3597 1.54778 10.1554L0.343392 9.20843C0.165433 9.068 0.0506639 8.86253 0.0244226 8.63736C-0.00181875 8.41219 0.0626191 8.18583 0.203515 8.00824C0.31709 7.8624 0.475282 7.75776 0.653931 7.7103L2.12828 7.31863C2.20102 7.12699 2.28216 6.93955 2.36748 6.75211L1.61772 5.42043C1.50618 5.22275 1.47786 4.98882 1.53901 4.77023C1.60015 4.55164 1.74573 4.36635 1.94364 4.25522C2.10418 4.16481 2.28973 4.12897 2.47239 4.15311L3.9873 4.35873C4.12858 4.20206 4.27266 4.06218 4.42373 3.9223L4.23489 2.40179C4.20724 2.17693 4.27015 1.95032 4.40974 1.77189C4.54934 1.59346 4.75416 1.47787 4.97906 1.45059C5.16279 1.42804 5.34886 1.46584 5.50922 1.5583L6.84509 2.32205C7.03114 2.24092 7.21578 2.16399 7.40462 2.09405L7.81447 0.62389C7.94152 0.169218 8.41313 -0.0963392 8.86778 0.0307921C9.04533 0.0804744 9.20194 0.186515 9.314 0.332937L10.2456 1.54151C10.4512 1.53172 10.6569 1.53312 10.8625 1.54151L11.8039 0.344128C12.0951 -0.0272936 12.6319 -0.092993 13.0041 0.197251C13.1496 0.311943 13.2546 0.47031 13.3034 0.649069L13.6825 2.07586C13.7214 2.0973 13.7584 2.12211 13.793 2.15C13.9525 2.21714 14.1092 2.28429 14.2658 2.35702L15.5863 1.61146C16.029 1.40162 16.5581 1.58923 16.7697 2.0311C16.8328 2.1651 16.8616 2.31265 16.8536 2.46054L16.6578 3.96287C16.8103 4.10695 16.9613 4.25242 17.1012 4.40489L18.6105 4.21745C19.0791 4.16072 19.5049 4.4945 19.5617 4.96302C19.5842 5.14674 19.5464 5.33278 19.454 5.49317L18.6945 6.81785C18.7784 7.00529 18.8567 7.19413 18.9281 7.38577L20.3996 7.79702ZM9.27763 17.6377C10.1219 17.7857 10.9857 17.7833 11.8291 17.6307L11.9746 17.6055C12.8906 17.4196 13.7621 17.0586 14.5414 16.5424L10.1071 11.4395L3.60684 12.7362C3.76576 13.2307 3.97726 13.7067 4.2377 14.156C4.26018 14.1943 4.28209 14.2328 4.30397 14.2713L4.30398 14.2713L4.30399 14.2713C4.35018 14.3525 4.39627 14.4335 4.44752 14.5113C4.46845 14.5431 4.49195 14.5732 4.51541 14.6032C4.5343 14.6273 4.55315 14.6515 4.57062 14.6764C4.9805 15.2461 5.47156 15.7527 6.02818 16.1801C6.30232 16.3957 6.5917 16.5911 6.89406 16.7648C7.48716 17.1099 8.12627 17.3689 8.79225 17.5342C8.95311 17.5734 9.11397 17.6097 9.27763 17.6377ZM4.835 5.97297C5.25102 5.44522 5.73826 4.97776 6.28278 4.58394C6.3159 4.55991 6.34842 4.53437 6.38089 4.50887C6.41836 4.47944 6.45577 4.45005 6.49399 4.42308C6.53682 4.39285 6.59174 4.36212 6.64757 4.33088C6.68473 4.31008 6.7223 4.28906 6.75697 4.26781C7.35518 3.91242 8.00158 3.64528 8.67615 3.47468C8.95713 3.3997 9.2426 3.3427 9.53082 3.30403C10.219 3.20984 10.9172 3.21503 11.6039 3.31941C11.6459 3.326 11.6884 3.33167 11.7309 3.33736L11.7309 3.33736C11.8058 3.34736 11.8809 3.3574 11.955 3.37257L11.9885 3.38096L9.81758 9.67564L3.26972 10.9807C3.23717 10.5082 3.25123 10.0335 3.31169 9.56373C3.31729 9.52353 3.32266 9.48325 3.32803 9.44293L3.32803 9.44292L3.32803 9.44291C3.34547 9.31208 3.36296 9.18081 3.38862 9.05036C3.41525 8.91502 3.45244 8.78495 3.48971 8.65457L3.48971 8.65457C3.49943 8.62056 3.50916 8.58653 3.51871 8.55239C3.67801 7.9857 3.90534 7.44039 4.19574 6.92836C4.38427 6.59493 4.59945 6.2773 4.8392 5.97856L4.835 5.97297ZM15.922 15.3017C16.0297 15.18 16.1332 15.0541 16.2326 14.9254L16.2368 14.9296C16.4307 14.6784 16.6074 14.4144 16.7655 14.1393C17.123 13.5338 17.391 12.8799 17.5614 12.1977C17.5658 12.1793 17.5701 12.1608 17.5745 12.1424C17.5984 12.0419 17.6223 11.941 17.6412 11.8382C17.8029 10.9846 17.8085 10.1088 17.658 9.25319C17.6552 9.23436 17.6533 9.21597 17.6514 9.19766C17.6485 9.16974 17.6457 9.14204 17.6398 9.11331C17.6347 9.08877 17.6282 9.0646 17.6217 9.04061C17.6156 9.01811 17.6095 8.99577 17.6048 8.97343C17.4417 8.24025 17.1652 7.53703 16.7851 6.88919C16.6315 6.62016 16.4599 6.36173 16.2717 6.11565C15.8977 5.62438 15.4624 5.18297 14.9764 4.80216C14.7033 4.58847 14.4154 4.39447 14.1148 4.22165C14.0708 4.19801 14.0268 4.1737 13.9825 4.1493C13.8985 4.10296 13.8139 4.05629 13.7287 4.01323L11.5647 10.2953L15.922 15.3017Z" fill="white"/>
</svg>
